acc_id,transaction_id,transaction_date,transaction_description,transaction_amount,customer_id
0000001_0000001,0000001_0000001_0000000001,01/01/2017,Recibos: Tarjeta,10,1
0000001_0000001,0000001_0000001_0000000002,02/01/2017,Recibos: Comunidad,115.06,1
0000001_0000001,0000001_0000001_0000000003,02/01/2017,Recibos: El Corte Inglés,11.9,1
0000001_0000001,0000001_0000001_0000000004,03/01/2017,Recibos: Gimnasio,36.18,1
0000001_0000001,0000001_0000001_0000000005,03/01/2017,Disposición de Efectivo en Cajero,180,1
0000001_0000001,0000001_0000001_0000000006,04/01/2017,Recibos: Telefónica,17.4,1
0000001_0000001,0000001_0000001_0000000007,05/01/2017,Recibos: Tarjeta,178.44,1
0000001_0000001,0000001_0000001_0000000008,05/01/2017,Recibos: Ayuda en Acción,23,1
0000001_0000001,0000001_0000001_0000000009,05/01/2017,Recibos: Ayuntamiento de Madrid. IBI,192.85,1
0000001_0000001,0000001_0000001_0000000010,05/01/2017,Recibos: Ayuntamiento de Madrid. Piscina,26,1
0000001_0000001,0000001_0000001_0000000011,05/01/2017,Transferencia: Lotería del Niño TSU,3,1
0000001_0000001,0000001_0000001_0000000012,09/01/2017,Disposición de Efectivo en Cajero,180,1
0000001_0000001,0000001_0000001_0000000013,10/01/2017,Transferencia: ING Direct,100,1
0000001_0000001,0000001_0000001_0000000014,13/01/2017,Recibos: Vodafone,17.71,1
0000001_0000001,0000001_0000001_0000000015,16/01/2017,Transferencia: Bankia,700,1
0000001_0000001,0000001_0000001_0000000016,20/01/2017,Disposición de Efectivo en Cajero,100,1
0000001_0000001,0000001_0000001_0000000017,26/01/2017,Recibos: Iberdrola,52.45,1
0000001_0000001,0000001_0000001_0000000018,27/01/2017,Recibos: Canal de Isabel II,28.61,1
0000001_0000001,0000001_0000001_0000000019,27/01/2017,Recibos: Endesa,115.57,1
0000001_0000001,0000001_0000001_0000000020,30/01/2017,Recibos: Unicef,15,1
0000001_0000001,0000001_0000001_0000000021,31/01/2017,Recibos: El Corte Inglés,101.5,1
0000001_0000001,0000001_0000001_0000000022,01/02/2017,Recibos: Comunidad,115.06,1
0000001_0000001,0000001_0000001_0000000023,02/02/2017,Recibos: Gimnasio,36.18,1
0000001_0000001,0000001_0000001_0000000024,03/02/2017,Recibos: Tarjeta,285.63,1
0000001_0000001,0000001_0000001_0000000025,03/02/2017,Recibos: Saunier Tec. Cuota Anual Caldera,106.03,1
0000001_0000001,0000001_0000001_0000000026,06/02/2017,Disposición de Efectivo en Cajero,180,1
0000001_0000001,0000001_0000001_0000000027,06/02/2017,Recibos: Telefónica,17.4,1
0000001_0000001,0000001_0000001_0000000028,06/02/2017,Recibos: Ayuda en Acción,23,1
0000001_0000001,0000001_0000001_0000000029,06/02/2017,Recibos: Ayuntamiento de Madrid. Piscina,26,1
0000001_0000001,0000001_0000001_0000000030,07/02/2017,Transferencia: ING Direct,100,1
0000001_0000001,0000001_0000001_0000000031,10/02/2017,Disposición de Efectivo en Cajero,180,1
0000001_0000001,0000001_0000001_0000000032,13/02/2017,Recibos: Vodafone,15.25,1
0000001_0000001,0000001_0000001_0000000033,15/02/2017,Transferencia: Bankia,700,1
0000001_0000001,0000001_0000001_0000000034,24/02/2017,Recibos: Iberdrola,43.51,1
0000001_0000001,0000001_0000001_0000000035,24/02/2017,Disposición de Efectivo en Cajero,180,1
0000001_0000001,0000001_0000001_0000000036,27/02/2017,Recibos: Unicef,15,1
0000001_0000001,0000001_0000001_0000000037,28/02/2017,Recibos: El Corte Inglés,159,1
0000001_0000001,0000001_0000001_0000000038,01/03/2017,Recibos: Comunidad,115.06,1
0000001_0000001,0000001_0000001_0000000039,03/03/2017,Recibos: Tarjeta,277.89,1
0000001_0000001,0000001_0000001_0000000040,03/03/2017,Recibos: Gimnasio,36.18,1
0000001_0000001,0000001_0000001_0000000041,06/03/2017,Recibos: Telefónica,17.4,1
0000001_0000001,0000001_0000001_0000000042,06/03/2017,Recibos: Ayuda en Acción,23,1
0000001_0000001,0000001_0000001_0000000043,06/03/2017,Recibos: Ayuntamiento de Madrid. Piscina,26,1
0000001_0000001,0000001_0000001_0000000044,06/03/2017,Recibos: Ayuntamiento de Madrid. Pintura T3,56.15,1
0000001_0000001,0000001_0000001_0000000045,06/03/2017,Recibos: Ayuntamiento de Madrid. Taichi T3,42.25,1
0000001_0000001,0000001_0000001_0000000046,07/03/2017,Transferencia: ING Direct,100,1
0000001_0000001,0000001_0000001_0000000047,07/03/2017,Transferencia Hipoteca: Bankia,6000,1
0000001_0000001,0000001_0000001_0000000048,07/03/2017,Transferencia: Jorge Viaje Baqueira Nieve 2017,399,1
0000001_0000001,0000001_0000001_0000000049,10/03/2017,Disposición de Efectivo en Cajero,200,1
0000001_0000001,0000001_0000001_0000000050,13/03/2017,Disposición de Efectivo en Cajero,180,1
0000001_0000001,0000001_0000001_0000000051,13/03/2017,Recibos: Vodafone,16.92,1
0000001_0000001,0000001_0000001_0000000052,13/03/2017,Recibos: Endesa,168.08,1
0000001_0000001,0000001_0000001_0000000053,15/03/2017,Transferencia: Bankia,700,1
0000001_0000001,0000001_0000001_0000000054,23/03/2017,Recibos: Iberdrola,33.35,1
0000001_0000001,0000001_0000001_0000000055,28/03/2017,Recibos: Canal de Isabel II,24.95,1
0000001_0000001,0000001_0000001_0000000056,30/03/2017,Recibos: Unicef,15,1
0000001_0000001,0000001_0000001_0000000057,03/04/2017,Recibos: Comunidad,115.06,1
0000001_0000001,0000001_0000001_0000000058,04/04/2017,Recibos: Telefónica,17.4,1
0000001_0000001,0000001_0000001_0000000059,05/04/2017,Recibos: Tarjeta,31.07,1
0000001_0000001,0000001_0000001_0000000060,05/04/2017,Recibos: Tarjeta,925.91,1
0000001_0000001,0000001_0000001_0000000061,05/04/2017,Recibos: Gimnasio,36.18,1
0000001_0000001,0000001_0000001_0000000062,05/04/2017,Recibos: Ayuda en Acción,23,1
0000001_0000001,0000001_0000001_0000000063,05/04/2017,Recibos: Ayuntamiento de Madrid. Piscina,26,1
0000001_0000001,0000001_0000001_0000000064,07/04/2017,Transferencia: ING Direct,100,1
0000001_0000001,0000001_0000001_0000000065,10/04/2017,Disposición de Efectivo en Cajero,200,1
0000001_0000001,0000001_0000001_0000000066,12/04/2017,Recibos: Vodafone,18.16,1
0000001_0000001,0000001_0000001_0000000067,17/04/2017,Transferencia: Bankia,700,1
0000001_0000001,0000001_0000001_0000000068,18/04/2017,Transferencia: Regalo Boda Vanesa y Sergio,200,1
0000001_0000001,0000001_0000001_0000000069,19/04/2017,Transferencia: Regalo Despedida de Rodri,10,1
0000001_0000001,0000001_0000001_0000000070,21/04/2017,Disposición de Efectivo en Cajero,180,1
0000001_0000001,0000001_0000001_0000000071,25/04/2017,Recbios: Iberdrola,36.45,1
0000001_0000001,0000001_0000001_0000000072,27/04/2017,Recibos: Unicef,15,1
0000001_0000001,0000001_0000001_0000000073,28/04/2017,Disposición de Efectivo en Cajero,120,1
0000001_0000001,0000001_0000001_0000000074,02/05/2017,Recibos: Comunidad,115.06,1
0000001_0000001,0000001_0000001_0000000075,02/05/2017,Recibos: El Corte Inglés,56,1
0000001_0000001,0000001_0000001_0000000076,04/05/2017,Recibos: Telefónica,17.4,1
0000001_0000001,0000001_0000001_0000000077,05/05/2017,Recibos: Tarjeta,568.15,1
0000001_0000001,0000001_0000001_0000000078,05/05/2017,Recibos: Gimnasio,36.18,1
0000001_0000001,0000001_0000001_0000000079,05/05/2017,Recibos: Ayuda en Acción,23,1
0000001_0000001,0000001_0000001_0000000080,05/05/2017,Recibos: Ayuntamiento de Madrid. Piscina,26,1
0000001_0000001,0000001_0000001_0000000081,05/05/2017,Compra de Divisas: GBP,296.1,1
0000001_0000001,0000001_0000001_0000000082,05/05/2017,Disposición de Efectivo en Cajero,200,1
0000001_0000001,0000001_0000001_0000000083,08/05/2017,Disposición de Efectivo en Cajero,80,1
0000001_0000001,0000001_0000001_0000000084,09/05/2017,Transferencia: ING Direct,100,1
0000001_0000001,0000001_0000001_0000000085,12/05/2017,Recibos: Vodafone,17,1
0000001_0000001,0000001_0000001_0000000086,12/05/2017,Disposición de Efectivo en Cajero,180,1
0000001_0000001,0000001_0000001_0000000087,15/05/2017,Transferencia: Bankia,700,1
0000001_0000001,0000001_0000001_0000000088,16/05/2017,Recibo: Endesa,49.44,1
0000001_0000001,0000001_0000001_0000000089,25/05/2017,Recibos: Iberdrola,40.81,1
0000001_0000001,0000001_0000001_0000000090,25/05/2017,Disposición de Efectivo en Cajero,200,1
0000001_0000001,0000001_0000001_0000000091,30/05/2017,Recibos: Unicef,15,1
0000001_0000001,0000001_0000001_0000000092,31/05/2017,Recibos: Canal de Isabel II,25.17,1
0000001_0000001,0000001_0000001_0000000093,01/06/2017,Recibos: Comunidad,115.06,1
0000001_0000001,0000001_0000001_0000000094,02/06/2017,Recibos: Gimnasio,36.18,1
0000001_0000001,0000001_0000001_0000000095,02/06/2017,Disposición de Efectivo en Cajero,200,1
0000001_0000001,0000001_0000001_0000000096,05/06/2017,Recibos: Telefónica,17.4,1
0000001_0000001,0000001_0000001_0000000097,05/06/2017,Recibos: Ayuda en Acción,23,1
0000001_0000001,0000001_0000001_0000000098,05/06/2017,Recibos: Ayuntamiento de Madrid. Piscina,26,1
0000001_0000001,0000001_0000001_0000000099,07/06/2017,Transferencia: ING Direct,100,1
0000001_0000001,0000001_0000001_0000000100,09/06/2017,Transferencia: Viaje Grecia Incognita,385,1
0000001_0000001,0000001_0000001_0000000101,13/06/2017,Recibos: Vodafone,17.25,1
0000001_0000001,0000001_0000001_0000000102,15/06/2017,Transferencia: Bankia,700,1
0000001_0000001,0000001_0000001_0000000103,15/06/2017,Disposición de Efectivo en Cajero,180,1
0000001_0000001,0000001_0000001_0000000104,21/06/2017,Disposición de Efectivo en Cajero,300,1
0000001_0000001,0000001_0000001_0000000105,29/06/2017,Recibos: Unicef,15,1
0000001_0000001,0000001_0000001_0000000106,29/06/2017,Disposición de Efectivo en Cajero,180,1
0000001_0000001,0000001_0000001_0000000107,03/07/2017,Recibos: Comunidad,115.06,1
0000001_0000001,0000001_0000001_0000000108,04/07/2017,Recibos: Iberdrola,49.1,1
0000001_0000001,0000001_0000001_0000000109,04/07/2017,Recibos: Telefónica,17.4,1
0000001_0000001,0000001_0000001_0000000110,05/07/2017,Recibos: Tarjeta,291.8,1
0000001_0000001,0000001_0000001_0000000111,05/07/2017,Recibos: Gimnasio,36.18,1
0000001_0000001,0000001_0000001_0000000112,05/07/2017,Recibos: Ayuda en Acción,23,1
0000001_0000001,0000001_0000001_0000000113,05/07/2017,Recibos: Ayuntamiento de Madrid. IBI,192.85,1
0000001_0000001,0000001_0000001_0000000114,07/07/2017,Transferencia: ING Direct,100,1
0000001_0000001,0000001_0000001_0000000115,10/07/2017,Disposición de Efectivo en Cajero,180,1
0000001_0000001,0000001_0000001_0000000116,12/07/2017,Recibos: Vodafone,18.76,1
0000001_0000001,0000001_0000001_0000000117,14/07/2017,Disposición de Efectivo en Cajero,180,1
0000001_0000001,0000001_0000001_0000000118,14/07/2017,Recibos: Endesa,23.32,1
0000001_0000001,0000001_0000001_0000000119,17/07/2017,Transferencia: Bankia,700,1
0000001_0000001,0000001_0000001_0000000120,20/07/2017,Disposición de Efectivo en Cajero,280,1
0000001_0000001,0000001_0000001_0000000121,24/07/2017,Recibos: Iberdrola,23.81,1
0000001_0000001,0000001_0000001_0000000122,26/07/2017,Disposición de Efectivo en Cajero,200,1
0000001_0000001,0000001_0000001_0000000123,27/07/2017,Recibos: Canal de Isabel II,24.99,1
0000001_0000001,0000001_0000001_0000000124,28/07/2017,Recibos: Unicef,15,1
0000001_0000001,0000001_0000001_0000000125,31/07/2017,Disposición de Efectivo en Cajero,300,1
0000001_0000001,0000001_0000001_0000000126,31/07/2017,Recibos: El Corte Inglés,59.76,1
0000001_0000001,0000001_0000001_0000000127,01/08/2017,Recibos: Comunidad,115.06,1
0000001_0000001,0000001_0000001_0000000128,03/08/2017,Recibos: GImnasio,36.18,1
0000001_0000001,0000001_0000001_0000000129,04/08/2017,Recibos: Tarjeta,143.2,1
0000001_0000001,0000001_0000001_0000000130,04/08/2017,Recibos: Telefónica,17.4,1
0000001_0000001,0000001_0000001_0000000131,07/08/2017,Recibos: Ayuda en Acción,23,1
0000001_0000001,0000001_0000001_0000000132,07/08/2017,Transferencia: Viaje Grecia Incognita,1406,1
0000001_0000001,0000001_0000001_0000000133,08/08/2017,Transferencia: ING Direct,100,1
0000001_0000001,0000001_0000001_0000000134,08/08/2017,Transferencia: Mariano Gasolina Huelva,20,1
0000001_0000001,0000001_0000001_0000000135,10/08/2017,Disposición de Efectivo en Cajero,180,1
0000001_0000001,0000001_0000001_0000000136,11/08/2017,Recibos: Vodafone,21.55,1
0000001_0000001,0000001_0000001_0000000137,11/08/2017,Disposición de Efectivo en Cajero,300,1
0000001_0000001,0000001_0000001_0000000138,11/08/2017,Disposición de Efectivo en Cajero,300,1
0000001_0000001,0000001_0000001_0000000139,16/08/2017,Transferencia: Bankia,700,1
0000001_0000001,0000001_0000001_0000000140,24/08/2017,Recibos: Iberdrola,41.32,1
0000001_0000001,0000001_0000001_0000000141,30/08/2017,Recibos: Unicef,15,1
0000001_0000001,0000001_0000001_0000000142,31/08/2017,Recibos: El Corte Inglés,190.95,1
0000001_0000001,0000001_0000001_0000000143,01/09/2017,Recibos: Comunidad,115.06,1
0000001_0000001,0000001_0000001_0000000144,04/09/2017,Recibos: Telefónica,17.4,1
0000001_0000001,0000001_0000001_0000000145,04/09/2017,Disposición de Efectivo en Cajero,40,1
0000001_0000001,0000001_0000001_0000000146,05/09/2017,Recibos: Tarjeta,339.33,1
0000001_0000001,0000001_0000001_0000000147,05/09/2017,Recibos: GImnasio,36.18,1
0000001_0000001,0000001_0000001_0000000148,05/09/2017,Recibos: Ayuntamiento de Madrid. Piscina,26,1
0000001_0000001,0000001_0000001_0000000149,06/09/2017,Recibos: Ayuda en Acción,23,1
0000001_0000001,0000001_0000001_0000000150,07/09/2017,Transferencia: ING Direct,100,1
0000001_0000001,0000001_0000001_0000000151,13/09/2017,Recibos: Vodafone,21.74,1
0000001_0000001,0000001_0000001_0000000152,14/09/2017,Recibos: Endesa,22.12,1
0000001_0000001,0000001_0000001_0000000153,15/09/2017,Transferencia: Bankia,700,1
0000001_0000002,0000001_0000002_0000000154,21/09/2017,Recibos: Iberdrola,37.11,1
0000001_0000002,0000001_0000002_0000000155,21/09/2017,Transferencia: Regalo Despedida de Corisco,10,1
0000001_0000002,0000001_0000002_0000000156,25/09/2017,Recibos: Canal de Isabel II,24.95,1
0000001_0000002,0000001_0000002_0000000157,28/09/2017,Recibos: Unicef,15,1
0000001_0000002,0000001_0000002_0000000158,28/09/2017,Disposición de Efectivo en Cajero,180,1
0000001_0000002,0000001_0000002_0000000159,02/10/2017,Recibos: Comunidad,115.06,1
0000001_0000002,0000001_0000002_0000000160,04/10/2017,Recibos: GImnasio,36.18,1
0000001_0000002,0000001_0000002_0000000161,04/10/2017,Recibos: Telefónica,17.4,1
0000001_0000002,0000001_0000002_0000000162,04/10/2017,Disposición de Efectivo en Cajero,180,1
0000001_0000002,0000001_0000002_0000000163,05/10/2017,Recibos: Tarjeta,134.59,1
0000001_0000002,0000001_0000002_0000000164,05/10/2017,Recibos: Ayuntamiento de Madrid. Piscina,26,1
0000001_0000002,0000001_0000002_0000000165,06/10/2017,Recibos: Ayuda en Acción,23,1
0000001_0000002,0000001_0000002_0000000166,09/10/2017,Transferencia: ING Direct,100,1
0000001_0000002,0000001_0000002_0000000167,11/10/2017,Recibos: Vodafone,18,1
0000001_0000002,0000001_0000002_0000000168,16/10/2017,Disposición de Efectivo en Cajero,200,1
0000001_0000002,0000001_0000002_0000000169,16/10/2017,Transferencia: Bankia,700,1
0000001_0000002,0000001_0000002_0000000170,20/10/2017,Disposición de Efectivo en Cajero,200,1
0000001_0000002,0000001_0000002_0000000171,23/10/2017,Recibos: Iberdrola,44.67,1
0000001_0000002,0000001_0000002_0000000172,30/10/2017,Recibos: Unicef,15,1
0000001_0000002,0000001_0000002_0000000173,02/11/2017,Recibos: Comunidad,115.06,1
0000001_0000002,0000001_0000002_0000000174,02/11/2017,Recibos: GImnasio,36.18,1
0000001_0000002,0000001_0000002_0000000175,03/11/2017,Recibos: Tarjeta,186.65,1
0000001_0000002,0000001_0000002_0000000176,06/11/2017,Recibos: Ayuntamiento de Madrid. Piscina,26,1
0000001_0000002,0000001_0000002_0000000177,06/11/2017,Recibos: Telefónica,17.4,1
0000001_0000002,0000001_0000002_0000000178,07/11/2017,Recibos: Ayuda en Acción,23,1
0000001_0000002,0000001_0000002_0000000179,10/11/2017,Disposición de Efectivo en Cajero,200,1
0000001_0000002,0000001_0000002_0000000180,14/11/2017,Recibos: Vodafone,18.5,1
0000001_0000002,0000001_0000002_0000000181,14/11/2017,Adeudo de BBVA Seguros,494.18,1
0000001_0000002,0000001_0000002_0000000182,15/11/2017,Transferencia: Bankia,700,1
0000001_0000002,0000001_0000002_0000000183,17/11/2017,Disposición de Efectivo en Cajero,180,1
0000001_0000002,0000001_0000002_0000000184,21/11/2017,Recibos: Endesa,37.69,1
0000001_0000002,0000001_0000002_0000000185,21/11/2017,Transferencia: Entrada Ópera a Nerea,133,1
0000001_0000002,0000001_0000002_0000000186,22/11/2017,Recibos: Iberdrola,51.58,1
0000001_0000002,0000001_0000002_0000000187,22/11/2017,Disposición de Efectivo en Cajero,200,1
0000001_0000002,0000001_0000002_0000000188,23/11/2017,Transferencia: Loteria Tres Cantos a Quique,30,1
0000001_0000002,0000001_0000002_0000000189,24/11/2017,Recibos: Canal de Isabel II,29.63,1
0000001_0000002,0000001_0000002_0000000190,24/11/2017,Disposición de Efectivo en Cajero,180,1
0000001_0000002,0000001_0000002_0000000191,29/11/2017,Recibos: Unicef,15,1
0000001_0000002,0000001_0000002_0000000192,01/12/2017,Recibos: Comunidad,115.06,1
0000001_0000002,0000001_0000002_0000000193,04/12/2017,Recibos: Telefónica,17.4,1
0000001_0000002,0000001_0000002_0000000194,05/12/2017,Recibos: Tarjeta,387.85,1
0000001_0000002,0000001_0000002_0000000195,05/12/2017,Recibos: Ayuntamiento de Madrid. Taller Pintura,56.15,1
0000001_0000002,0000001_0000002_0000000196,05/12/2017,Recibos: Gimnasio,36.18,1
0000001_0000002,0000001_0000002_0000000197,05/12/2017,Recibos: Ayuntamiento de Madrid. Piscina,26,1
0000001_0000002,0000001_0000002_0000000198,07/12/2017,Recibos: Ayuda en Acción,23,1
0000001_0000002,0000001_0000002_0000000199,11/12/2017,Disposición de Efectivo en Cajero,80,1
0000001_0000002,0000001_0000002_0000000200,12/12/2017,Recibos: Vodafone,17,1
0000001_0000002,0000001_0000002_0000000201,15/12/2017,Transferencia: Bankia,700,1
0000001_0000002,0000001_0000002_0000000202,15/12/2017,Recibos: Ayuntamiento de Madrid. IBI,37.13,1
0000001_0000002,0000001_0000002_0000000203,19/12/2017,Disposición de Efectivo en Cajero,180,1
0000001_0000002,0000001_0000002_0000000204,27/12/2017,Recibos: Iberdrola,48.9,1
0000001_0000002,0000001_0000002_0000000205,28/12/2017,Recibos: Unicef,15,1
