acc_id,transaction_id,transaction_date,transaction_description,transaction_amount,customer_id
0000019_0000001,0000019_0000001_0000000037,28/02/2017,Recibos: El Corte Inglés,159,19
0000019_0000001,0000019_0000001_0000000038,01/03/2017,Recibos: Comunidad,115.06,19
0000019_0000001,0000019_0000001_0000000039,03/03/2017,Recibos: Tarjeta,277.89,19
0000019_0000001,0000019_0000001_0000000040,03/03/2017,Recibos: Gimnasio,36.18,19
0000019_0000001,0000019_0000001_0000000041,06/03/2017,Recibos: Telefónica,17.4,19
0000019_0000001,0000019_0000001_0000000042,06/03/2017,Recibos: Ayuda en Acción,23,19
0000019_0000001,0000019_0000001_0000000043,06/03/2017,Recibos: Ayuntamiento de Madrid. Piscina,26,19
0000019_0000001,0000019_0000001_0000000044,06/03/2017,Recibos: Ayuntamiento de Madrid. Pintura T3,56.15,19
0000019_0000001,0000019_0000001_0000000045,06/03/2017,Recibos: Ayuntamiento de Madrid. Taichi T3,42.25,19
0000019_0000001,0000019_0000001_0000000046,07/03/2017,Transferencia: ING Direct,100,19
0000019_0000001,0000019_0000001_0000000047,07/03/2017,Transferencia Hipoteca: Bankia,6000,19
0000019_0000001,0000019_0000001_0000000048,07/03/2017,Transferencia: Jorge Viaje Baqueira Nieve 2017,399,19
0000019_0000001,0000019_0000001_0000000049,10/03/2017,Disposición de Efectivo en Cajero,200,19
0000019_0000001,0000019_0000001_0000000050,13/03/2017,Disposición de Efectivo en Cajero,180,19
0000019_0000001,0000019_0000001_0000000051,13/03/2017,Recibos: Vodafone,16.92,19
0000019_0000001,0000019_0000001_0000000052,13/03/2017,Recibos: Endesa,168.08,19
0000019_0000001,0000019_0000001_0000000053,15/03/2017,Transferencia: Bankia,700,19
0000019_0000001,0000019_0000001_0000000054,23/03/2017,Recibos: Iberdrola,33.35,19
0000019_0000001,0000019_0000001_0000000055,28/03/2017,Recibos: Canal de Isabel II,24.95,19
0000019_0000001,0000019_0000001_0000000056,30/03/2017,Recibos: Unicef,15,19
0000019_0000001,0000019_0000001_0000000057,03/04/2017,Recibos: Comunidad,115.06,19
0000019_0000001,0000019_0000001_0000000058,04/04/2017,Recibos: Telefónica,17.4,19
0000019_0000001,0000019_0000001_0000000059,05/04/2017,Recibos: Tarjeta,31.07,19
0000019_0000001,0000019_0000001_0000000060,05/04/2017,Recibos: Tarjeta,925.91,19
0000019_0000001,0000019_0000001_0000000061,05/04/2017,Recibos: Gimnasio,36.18,19
0000019_0000001,0000019_0000001_0000000062,05/04/2017,Recibos: Ayuda en Acción,23,19
0000019_0000001,0000019_0000001_0000000063,05/04/2017,Recibos: Ayuntamiento de Madrid. Piscina,26,19
0000019_0000001,0000019_0000001_0000000064,07/04/2017,Transferencia: ING Direct,100,19
0000019_0000001,0000019_0000001_0000000065,10/04/2017,Disposición de Efectivo en Cajero,200,19
0000019_0000001,0000019_0000001_0000000066,12/04/2017,Recibos: Vodafone,18.16,19
0000019_0000001,0000019_0000001_0000000067,17/04/2017,Transferencia: Bankia,700,19
0000019_0000001,0000019_0000001_0000000068,18/04/2017,Transferencia: Regalo Boda Vanesa y Sergio,200,19
0000019_0000001,0000019_0000001_0000000069,19/04/2017,Transferencia: Regalo Despedida de Rodri,10,19
0000019_0000001,0000019_0000001_0000000070,21/04/2017,Disposición de Efectivo en Cajero,180,19
0000019_0000001,0000019_0000001_0000000071,25/04/2017,Recbios: Iberdrola,36.45,19
0000019_0000001,0000019_0000001_0000000072,27/04/2017,Recibos: Unicef,15,19
0000019_0000001,0000019_0000001_0000000073,28/04/2017,Disposición de Efectivo en Cajero,120,19
0000019_0000001,0000019_0000001_0000000074,02/05/2017,Recibos: Comunidad,115.06,19
0000019_0000001,0000019_0000001_0000000075,02/05/2017,Recibos: El Corte Inglés,56,19
0000019_0000001,0000019_0000001_0000000076,04/05/2017,Recibos: Telefónica,17.4,19
0000019_0000001,0000019_0000001_0000000077,05/05/2017,Recibos: Tarjeta,568.15,19
0000019_0000001,0000019_0000001_0000000078,05/05/2017,Recibos: Gimnasio,36.18,19
0000019_0000001,0000019_0000001_0000000079,05/05/2017,Recibos: Ayuda en Acción,23,19
0000019_0000001,0000019_0000001_0000000080,05/05/2017,Recibos: Ayuntamiento de Madrid. Piscina,26,19
0000019_0000001,0000019_0000001_0000000081,05/05/2017,Compra de Divisas: GBP,296.1,19
0000019_0000001,0000019_0000001_0000000082,05/05/2017,Disposición de Efectivo en Cajero,200,19
0000019_0000001,0000019_0000001_0000000083,08/05/2017,Disposición de Efectivo en Cajero,80,19
0000019_0000001,0000019_0000001_0000000084,09/05/2017,Transferencia: ING Direct,100,19
0000019_0000001,0000019_0000001_0000000085,12/05/2017,Recibos: Vodafone,17,19
0000019_0000001,0000019_0000001_0000000086,12/05/2017,Disposición de Efectivo en Cajero,180,19
0000019_0000001,0000019_0000001_0000000087,15/05/2017,Transferencia: Bankia,700,19
0000019_0000001,0000019_0000001_0000000088,16/05/2017,Recibo: Endesa,49.44,19
0000019_0000001,0000019_0000001_0000000089,25/05/2017,Recibos: Iberdrola,40.81,19
0000019_0000001,0000019_0000001_0000000090,25/05/2017,Disposición de Efectivo en Cajero,200,19
0000019_0000001,0000019_0000001_0000000091,30/05/2017,Recibos: Unicef,15,19
0000019_0000001,0000019_0000001_0000000092,31/05/2017,Recibos: Canal de Isabel II,25.17,19
0000019_0000001,0000019_0000001_0000000093,01/06/2017,Recibos: Comunidad,115.06,19
0000019_0000001,0000019_0000001_0000000094,02/06/2017,Recibos: Gimnasio,36.18,19
0000019_0000001,0000019_0000001_0000000095,02/06/2017,Disposición de Efectivo en Cajero,200,19
0000019_0000001,0000019_0000001_0000000096,05/06/2017,Recibos: Telefónica,17.4,19
0000019_0000001,0000019_0000001_0000000097,05/06/2017,Recibos: Ayuda en Acción,23,19
0000019_0000001,0000019_0000001_0000000098,05/06/2017,Recibos: Ayuntamiento de Madrid. Piscina,26,19
0000019_0000001,0000019_0000001_0000000099,07/06/2017,Transferencia: ING Direct,100,19
0000019_0000001,0000019_0000001_0000000100,09/06/2017,Transferencia: Viaje Grecia Incognita,385,19
0000019_0000001,0000019_0000001_0000000101,13/06/2017,Recibos: Vodafone,17.25,19
0000019_0000001,0000019_0000001_0000000102,15/06/2017,Transferencia: Bankia,700,19
0000019_0000001,0000019_0000001_0000000103,15/06/2017,Disposición de Efectivo en Cajero,180,19
0000019_0000001,0000019_0000001_0000000104,21/06/2017,Disposición de Efectivo en Cajero,300,19
0000019_0000001,0000019_0000001_0000000105,29/06/2017,Recibos: Unicef,15,19
0000019_0000001,0000019_0000001_0000000106,29/06/2017,Disposición de Efectivo en Cajero,180,19
0000019_0000001,0000019_0000001_0000000107,03/07/2017,Recibos: Comunidad,115.06,19
0000019_0000001,0000019_0000001_0000000108,04/07/2017,Recibos: Iberdrola,49.1,19
0000019_0000001,0000019_0000001_0000000109,04/07/2017,Recibos: Telefónica,17.4,19
0000019_0000001,0000019_0000001_0000000110,05/07/2017,Recibos: Tarjeta,291.8,19
0000019_0000001,0000019_0000001_0000000111,05/07/2017,Recibos: Gimnasio,36.18,19
0000019_0000001,0000019_0000001_0000000112,05/07/2017,Recibos: Ayuda en Acción,23,19
0000019_0000001,0000019_0000001_0000000113,05/07/2017,Recibos: Ayuntamiento de Madrid. IBI,192.85,19
0000019_0000001,0000019_0000001_0000000114,07/07/2017,Transferencia: ING Direct,100,19
0000019_0000001,0000019_0000001_0000000115,10/07/2017,Disposición de Efectivo en Cajero,180,19
0000019_0000001,0000019_0000001_0000000116,12/07/2017,Recibos: Vodafone,18.76,19
0000019_0000001,0000019_0000001_0000000117,14/07/2017,Disposición de Efectivo en Cajero,180,19
0000019_0000001,0000019_0000001_0000000118,14/07/2017,Recibos: Endesa,23.32,19
0000019_0000001,0000019_0000001_0000000119,17/07/2017,Transferencia: Bankia,700,19
0000019_0000001,0000019_0000001_0000000120,20/07/2017,Disposición de Efectivo en Cajero,280,19
0000019_0000001,0000019_0000001_0000000121,24/07/2017,Recibos: Iberdrola,23.81,19
0000019_0000001,0000019_0000001_0000000122,26/07/2017,Disposición de Efectivo en Cajero,200,19
0000019_0000001,0000019_0000001_0000000123,27/07/2017,Recibos: Canal de Isabel II,24.99,19
0000019_0000001,0000019_0000001_0000000124,28/07/2017,Recibos: Unicef,15,19
0000019_0000001,0000019_0000001_0000000125,31/07/2017,Disposición de Efectivo en Cajero,300,19
0000019_0000001,0000019_0000001_0000000126,31/07/2017,Recibos: El Corte Inglés,59.76,19
0000019_0000001,0000019_0000001_0000000127,01/08/2017,Recibos: Comunidad,115.06,19
0000019_0000001,0000019_0000001_0000000128,03/08/2017,Recibos: GImnasio,36.18,19
0000019_0000001,0000019_0000001_0000000129,04/08/2017,Recibos: Tarjeta,143.2,19
0000019_0000001,0000019_0000001_0000000130,04/08/2017,Recibos: Telefónica,17.4,19
0000019_0000001,0000019_0000001_0000000131,07/08/2017,Recibos: Ayuda en Acción,23,19
0000019_0000001,0000019_0000001_0000000132,07/08/2017,Transferencia: Viaje Grecia Incognita,1406,19
0000019_0000001,0000019_0000001_0000000133,08/08/2017,Transferencia: ING Direct,100,19
0000019_0000001,0000019_0000001_0000000134,08/08/2017,Transferencia: Mariano Gasolina Huelva,20,19
0000019_0000001,0000019_0000001_0000000135,10/08/2017,Disposición de Efectivo en Cajero,180,19
0000019_0000001,0000019_0000001_0000000136,11/08/2017,Recibos: Vodafone,21.55,19
0000019_0000001,0000019_0000001_0000000137,11/08/2017,Disposición de Efectivo en Cajero,300,19
0000019_0000001,0000019_0000001_0000000138,11/08/2017,Disposición de Efectivo en Cajero,300,19
0000019_0000001,0000019_0000001_0000000139,16/08/2017,Transferencia: Bankia,700,19
0000019_0000001,0000019_0000001_0000000140,24/08/2017,Recibos: Iberdrola,41.32,19
0000019_0000001,0000019_0000001_0000000141,30/08/2017,Recibos: Unicef,15,19
0000019_0000001,0000019_0000001_0000000142,31/08/2017,Recibos: El Corte Inglés,190.95,19
0000019_0000001,0000019_0000001_0000000143,01/09/2017,Recibos: Comunidad,115.06,19
0000019_0000001,0000019_0000001_0000000144,04/09/2017,Recibos: Telefónica,17.4,19
0000019_0000001,0000019_0000001_0000000145,04/09/2017,Disposición de Efectivo en Cajero,40,19
0000019_0000001,0000019_0000001_0000000146,05/09/2017,Recibos: Tarjeta,339.33,19
0000019_0000001,0000019_0000001_0000000147,05/09/2017,Recibos: GImnasio,36.18,19
0000019_0000001,0000019_0000001_0000000148,05/09/2017,Recibos: Ayuntamiento de Madrid. Piscina,26,19
0000019_0000001,0000019_0000001_0000000149,06/09/2017,Recibos: Ayuda en Acción,23,19
0000019_0000001,0000019_0000001_0000000150,07/09/2017,Transferencia: ING Direct,100,19
0000019_0000001,0000019_0000001_0000000151,13/09/2017,Recibos: Vodafone,21.74,19
0000019_0000001,0000019_0000001_0000000152,14/09/2017,Recibos: Endesa,22.12,19
0000019_0000001,0000019_0000001_0000000153,15/09/2017,Transferencia: Bankia,700,19
0000019_0000002,0000019_0000002_0000000177,06/11/2017,Recibos: Telefónica,17.4,19
0000019_0000002,0000019_0000002_0000000178,07/11/2017,Recibos: Ayuda en Acción,23,19
0000019_0000002,0000019_0000002_0000000179,10/11/2017,Disposición de Efectivo en Cajero,200,19
0000019_0000002,0000019_0000002_0000000180,14/11/2017,Recibos: Vodafone,18.5,19
0000019_0000002,0000019_0000002_0000000181,14/11/2017,Adeudo de BBVA Seguros,494.18,19
0000019_0000002,0000019_0000002_0000000182,15/11/2017,Transferencia: Bankia,700,19
0000019_0000002,0000019_0000002_0000000183,17/11/2017,Disposición de Efectivo en Cajero,180,19
0000019_0000002,0000019_0000002_0000000184,21/11/2017,Recibos: Endesa,37.69,19
0000019_0000002,0000019_0000002_0000000185,21/11/2017,Transferencia: Entrada Ópera a Nerea,133,19
0000019_0000002,0000019_0000002_0000000186,22/11/2017,Recibos: Iberdrola,51.58,19
0000019_0000002,0000019_0000002_0000000187,22/11/2017,Disposición de Efectivo en Cajero,200,19
0000019_0000002,0000019_0000002_0000000188,23/11/2017,Transferencia: Loteria Tres Cantos a Quique,30,19
0000019_0000002,0000019_0000002_0000000189,24/11/2017,Recibos: Canal de Isabel II,29.63,19
0000019_0000002,0000019_0000002_0000000190,24/11/2017,Disposición de Efectivo en Cajero,180,19
0000019_0000002,0000019_0000002_0000000191,29/11/2017,Recibos: Unicef,15,19
0000019_0000002,0000019_0000002_0000000192,01/12/2017,Recibos: Comunidad,115.06,19
0000019_0000002,0000019_0000002_0000000193,04/12/2017,Recibos: Telefónica,17.4,19
0000019_0000002,0000019_0000002_0000000194,05/12/2017,Recibos: Tarjeta,387.85,19
0000019_0000002,0000019_0000002_0000000195,05/12/2017,Recibos: Ayuntamiento de Madrid. Taller Pintura,56.15,19
0000019_0000002,0000019_0000002_0000000196,05/12/2017,Recibos: Gimnasio,36.18,19
0000019_0000002,0000019_0000002_0000000197,05/12/2017,Recibos: Ayuntamiento de Madrid. Piscina,26,19
0000019_0000002,0000019_0000002_0000000198,07/12/2017,Recibos: Ayuda en Acción,23,19
0000019_0000002,0000019_0000002_0000000199,11/12/2017,Disposición de Efectivo en Cajero,80,19
0000019_0000002,0000019_0000002_0000000200,12/12/2017,Recibos: Vodafone,17,19
0000019_0000002,0000019_0000002_0000000201,15/12/2017,Transferencia: Bankia,700,19
0000019_0000002,0000019_0000002_0000000202,15/12/2017,Recibos: Ayuntamiento de Madrid. IBI,37.13,19
0000019_0000002,0000019_0000002_0000000203,19/12/2017,Disposición de Efectivo en Cajero,180,19
0000019_0000002,0000019_0000002_0000000204,27/12/2017,Recibos: Iberdrola,48.9,19
0000019_0000002,0000019_0000002_0000000205,28/12/2017,Recibos: Unicef,15,19
